{
    "Version": "2008-10-17",
    "Id": "PolicyForPublicWebsiteContent",
    "Statement": [
        {
            "Sid": "PublicReadGetObject",
            "Effect": "Allow",
            "Principal": {
                "AWS": "*"
            },
            "Action": "s3:GetObject",
            "Resource": "arn:aws:s3:::www.my-awesome-site.com/*"
        }
    ]
}
