{
    "Rules": [
        {
            "Expiration": {
                "Days": 180
            },
            "ID": "180 Day Glacier Archive",
            "Filter": {
                "Prefix": ""
            },
            "Status": "Enabled",
            "Transitions": [
                {
                    "Days": 2,
                    "StorageClass": "GLACIER"
                }
            ]
        },
        {
            "ID": "1 Day Abort Incomplete Multi-Parts",
            "Filter": {
                "Prefix": ""
            },
            "Status": "Enabled",
            "AbortIncompleteMultipartUpload": {
                "DaysAfterInitiation": 1
            }
        }
    ]
}
