{
    "Rules": [
        {
            "ID": "180 Day Glacier Archive",
            "Status": "Enabled",
            "Transition": {
                "StorageClass": "GLACIER",
                "Days": 2
            },
            "Expiration": {
                "Days": 180
            }
        },
        {
            "ID": "2 Day Abort Incomplete Multi-Parts",
            "AbortIncompleteMultipartUpload": {
                "DaysAfterInitiation": 2
            },
            "Status": "Enabled"
        }
    ]
}
