{
  "account": "872277419998", 
  "region": "eu-west-1", 
  "detail": {
    "eventVersion": "1.05", 
    "eventID": "d70bba84-e82c-4d7e-9bbf-9a8a4b344b71", 
    "eventTime": "2016-11-04T20:39:03Z", 
    "requestParameters": {
      "force": false, 
      "instancesSet": {
        "items": [
          {
            "instanceId": "i-8bdbc21c"
          }, 
          {
            "instanceId": "i-b4dbc223"
          }, 
          {
            "instanceId": "i-b5dbc222"
          }
        ]
      }
    }, 
    "eventType": "AwsApiCall", 
    "responseElements": {
      "instancesSet": {
        "items": [
          {
            "instanceId": "i-8bdbc21c", 
            "currentState": {
              "code": 64, 
              "name": "stopping"
            }, 
            "previousState": {
              "code": 16, 
              "name": "running"
            }
          }, 
          {
            "instanceId": "i-b4dbc223", 
            "currentState": {
              "code": 64, 
              "name": "stopping"
            }, 
            "previousState": {
              "code": 16, 
              "name": "running"
            }
          }, 
          {
            "instanceId": "i-b5dbc222", 
            "currentState": {
              "code": 64, 
              "name": "stopping"
            }, 
            "previousState": {
              "code": 16, 
              "name": "running"
            }
          }
        ]
      }
    }, 
    "awsRegion": "eu-west-1", 
    "eventName": "StopInstances", 
    "userIdentity": {
      "userName": "SVC.SNOW", 
      "principalId": "AIDAIYRH3XU3AGL7CEO5E", 
"accessKeyId": "ASIAJVYKDD3XUHXXXXXX",
      "invokedBy": "signin.amazonaws.com", 
      "sessionContext": {
        "attributes": {
          "creationDate": "2016-11-04T12:59:05Z", 
          "mfaAuthenticated": "false"
        }
      }, 
      "type": "IAMUser", 
      "arn": "arn:aws:iam::872277419998:user/SVC.SNOW", 
      "accountId": "872277419998"
    }, 
    "eventSource": "ec2.amazonaws.com", 
    "requestID": "cefb5afc-93e0-4b56-b85a-b9b07fa78adb", 
    "userAgent": "signin.amazonaws.com", 
    "sourceIPAddress": "47.187.179.105"
  }, 
  "detail-type": "AWS API Call via CloudTrail", 
  "source": "aws.ec2", 
  "version": "0", 
  "time": "2016-11-04T20:39:03Z", 
  "id": "405ee57d-4831-4e5c-92f0-108bdc971f18", 
  "resources": []
}