{
  "account": "872277419998", 
  "region": "eu-west-1", 
  "detail": {
    "eventVersion": "1.05", 
    "eventID": "e6274905-1898-4bcc-bf1d-a99718897ebd", 
    "eventTime": "2016-11-17T17:23:37Z", 
    "requestParameters": {
      "sourceImageId": "ami-4cf5a53f", 
      "sourceRegion": "eu-west-1", 
      "name": "autotag-testing6", 
      "clientToken": "Krspj1479403417314", 
      "description": "[Copied ami-4cf5a53f from eu-west-1] autotag-testing5"
    }, 
    "eventType": "AwsApiCall", 
    "responseElements": {
      "requestId": "f8317933-d81c-4c65-b05e-fd3aaa29173c", 
      "imageId": "ami-0ad78479"
    }, 
    "awsRegion": "eu-west-1", 
    "eventName": "CopyImage", 
    "userIdentity": {
      "principalId": "AROAICE3AJ2CWVZNPUCK4:A469005", 
"accessKeyId": "ASIAJVYKDD3XUHXXXXXX",
      "sessionContext": {
        "sessionIssuer": {
          "userName": "UR-AtosAdmin", 
          "type": "Role", 
          "arn": "arn:aws:iam::872277419998:role/UR-AtosAdmin", 
          "principalId": "AROAICE3AJ2CWVZNPUCK4", 
          "accountId": "872277419998"
        }, 
        "attributes": {
          "creationDate": "2016-11-17T16:26:09Z", 
          "mfaAuthenticated": "true"
        }
      }, 
      "type": "AssumedRole", 
      "arn": "arn:aws:sts::872277419998:assumed-role/UR-AtosAdmin/A469005", 
      "accountId": "872277419998"
    }, 
    "eventSource": "ec2.amazonaws.com", 
    "requestID": "f8317933-d81c-4c65-b05e-fd3aaa29173c", 
    "userAgent": "console.ec2.amazonaws.com", 
    "sourceIPAddress": "47.187.179.105"
  }, 
  "detail-type": "AWS API Call via CloudTrail", 
  "source": "aws.ec2", 
  "version": "0", 
  "time": "2016-11-17T17:23:37Z", 
  "id": "38f586de-97a1-4375-b3eb-3e4997f0b085", 
  "resources": []
}
