{
  "account": "102512488663", 
  "region": "eu-west-1", 
  "detail": {
    "eventVersion": "1.05", 
    "eventID": "db33e652-5c3a-4557-afa9-c221ccabbc98", 
    "eventTime": "2017-01-13T18:16:31Z", 
    "requestParameters": {
      "instanceId": "i-013778a6b471eea1c", 
      "blockDeviceMapping": {
        "items": [
          {
            "deviceName": "/dev/xvda", 
            "ebs": {
              "deleteOnTermination": true, 
              "volumeSize": 8, 
              "volumeType": "standard", 
              "encrypted": false
            }
          }
        ]
      }, 
      "name": "AutoTag", 
      "noReboot": false, 
      "description": "DELETEME"
    }, 
    "eventType": "AwsApiCall", 
    "responseElements": {
      "imageId": "ami-930b21e0"
    }, 
    "awsRegion": "eu-west-1", 
    "eventName": "CreateImage", 
    "userIdentity": {
      "userName": "SVC.SNOW", 
      "principalId": "AIDAIINXDQQ2ISB666K5Q", 
"accessKeyId": "ASIAJVYKDD3XUHXXXXXX",
      "invokedBy": "signin.amazonaws.com", 
      "sessionContext": {
        "attributes": {
          "creationDate": "2017-01-13T18:00:32Z", 
          "mfaAuthenticated": "false"
        }
      }, 
      "type": "IAMUser", 
      "arn": "arn:aws:iam::102512488663:user/SVC.SNOW", 
      "accountId": "102512488663"
    }, 
    "eventSource": "ec2.amazonaws.com", 
    "requestID": "c3729656-4903-4ddf-83bc-3af3f88711d8", 
    "userAgent": "signin.amazonaws.com", 
    "sourceIPAddress": "47.187.179.105"
  }, 
  "detail-type": "AWS API Call via CloudTrail", 
  "source": "aws.ec2", 
  "version": "0", 
  "time": "2017-01-13T18:16:31Z", 
  "id": "70116cc9-83b5-40b6-b40c-8cbd2584cfc7", 
  "resources": []
}
