{
  "version": "0",
  "id": "90fbf6fa-e4ef-4c35-5a3b-be4429a3be59",
  "detail-type": "AWS API Call via CloudTrail",
  "source": "aws.ec2",
  "account": "166340714322",
  "time": "2017-10-05T09:28:06Z",
  "region": "eu-west-1",
  "resources": [],
  "detail": {
    "eventVersion": "1.05",
    "userIdentity": {
      "type": "AssumedRole",
      "principalId": "AROAISM7OXHVUWPEB2P5K:A469005",
      "arn": "arn:aws:sts::166340714322:assumed-role/UR-AtosAdmin/A469005",
      "accountId": "166340714322",
      "accessKeyId": "ASIAINHA4BDQPEYDXYXQ",
      "sessionContext": {
        "attributes": {
          "mfaAuthenticated": "true",
          "creationDate": "2017-10-05T08:29:00Z"
        },
        "sessionIssuer": {
          "type": "Role",
          "principalId": "AROAISM7OXHVUWPEB2P5K",
          "arn": "arn:aws:iam::166340714322:role/UR-AtosAdmin",
          "accountId": "166340714322",
          "userName": "UR-AtosAdmin"
        }
      },
      "invokedBy": "marketplace.amazonaws.com"
    },
    "eventTime": "2017-10-05T09:28:06Z",
    "eventSource": "ec2.amazonaws.com",
    "eventName": "RunInstances",
    "awsRegion": "eu-west-1",
    "sourceIPAddress": "marketplace.amazonaws.com",
    "userAgent": "marketplace.amazonaws.com",
    "requestParameters": {
      "instancesSet": {
        "items": [
          {
            "imageId": "ami-e110db98",
            "minCount": 1,
            "maxCount": 1,
            "keyName": "ATOSBUILD"
          }
        ]
      },
      "groupSet": {
        "items": [
          {
            "groupId": "sg-e4eae39c"
          }
        ]
      },
      "instanceType": "m4.xlarge",
      "blockDeviceMapping": {},
      "monitoring": {
        "enabled": false
      },
      "subnetId": "subnet-07c6df70",
      "disableApiTermination": false,
      "clientToken": "9fa92d03-3278-408d-9778-2c64e3857250",
      "ebsOptimized": false
    },
    "responseElements": {
      "requestId": "228a93a0-56ed-45b8-b1f2-9fb40bfc932e",
      "reservationId": "r-03a4bb453f7a8a561",
      "ownerId": "166340714322",
      "groupSet": {},
      "instancesSet": {
        "items": [
          {
            "instanceId": "i-019111398d0f7822a",
            "imageId": "ami-e110db98",
            "instanceState": {
              "code": 0,
              "name": "pending"
            },
            "privateDnsName": "ip-172-31-20-129.eu-west-1.compute.internal",
            "keyName": "ATOSBUILD",
            "amiLaunchIndex": 0,
            "productCodes": {},
            "instanceType": "m4.xlarge",
            "launchTime": 1507195686000,
            "placement": {
              "availabilityZone": "eu-west-1a",
              "tenancy": "default"
            },
            "monitoring": {
              "state": "disabled"
            },
            "subnetId": "subnet-07c6df70",
            "vpcId": "vpc-41181624",
            "privateIpAddress": "172.31.20.129",
            "stateReason": {
              "code": "pending",
              "message": "pending"
            },
            "architecture": "x86_64",
            "rootDeviceType": "ebs",
            "rootDeviceName": "/dev/xvda",
            "blockDeviceMapping": {},
            "virtualizationType": "hvm",
            "hypervisor": "xen",
            "clientToken": "9fa92d03-3278-408d-9778-2c64e3857250",
            "groupSet": {
              "items": [
                {
                  "groupId": "sg-e4eae39c",
                  "groupName": "AWS Storage Gateway-2.0.8.0-AutogenByAWSMP-"
                }
              ]
            },
            "sourceDestCheck": true,
            "networkInterfaceSet": {
              "items": [
                {
                  "networkInterfaceId": "eni-eab549d4",
                  "subnetId": "subnet-07c6df70",
                  "vpcId": "vpc-41181624",
                  "ownerId": "166340714322",
                  "status": "in-use",
                  "macAddress": "06:d8:8d:63:c6:a4",
                  "privateIpAddress": "172.31.20.129",
                  "privateDnsName": "ip-172-31-20-129.eu-west-1.compute.internal",
                  "sourceDestCheck": true,
                  "groupSet": {
                    "items": [
                      {
                        "groupId": "sg-e4eae39c",
                        "groupName": "AWS Storage Gateway-2.0.8.0-AutogenByAWSMP-"
                      }
                    ]
                  },
                  "attachment": {
                    "attachmentId": "eni-attach-8afaf2f2",
                    "deviceIndex": 0,
                    "status": "attaching",
                    "attachTime": 1507195686000,
                    "deleteOnTermination": true
                  },
                  "privateIpAddressesSet": {
                    "item": [
                      {
                        "privateIpAddress": "172.31.20.129",
                        "privateDnsName": "ip-172-31-20-129.eu-west-1.compute.internal",
                        "primary": true
                      }
                    ]
                  },
                  "tagSet": {}
                }
              ]
            },
            "ebsOptimized": false
          }
        ]
      }
    },
    "requestID": "228a93a0-56ed-45b8-b1f2-9fb40bfc932e",
    "eventID": "4a30981b-221b-494e-b3d9-f34ad23c0cf9",
    "eventType": "AwsApiCall"
  }
}
