{
  "Trigger": {
    "EvaluateLowSampleCountPercentile": "",
    "TreatMissingData": "",
    "Threshold": 5,
    "ComparisonOperator": "GreaterThanOrEqualToThreshold",
    "MetricName": "VirtualInterfaceState",
    "Namespace": "AWSx/DirectConnect",
    "StatisticType": "Statistic",
    "Statistic": "SUM",
    "Unit": null,
    "Dimensions": [
      {
        "value": "dxvif-fgspymm4",
        "name": "VirtualInterfaceId"
      }
    ],
    "Period": 300,
    "EvaluationPeriods": 1
  },
  "AlarmName": "dxvif-fgspymm4",
  "AlarmDescription": null,
  "AWSAccountId": "325529271994",
  "NewStateValue": "ALARM",
  "NewStateReason": "Threshold Crossed: 1 datapoint [8.0 19/08/17 21:47:00] was greater than or equal to the threshold 5.0.",
  "StateChangeTime": "2017-08-19T21:52:46.037+0000",
  "Region": "EU - Ireland",
  "OldStateValue": "OK"
}
