[
    {
        "Key": "MPC-SN-NAME",
        "Value": "EC2USE1W0072"
    },
    {
        "Key": "MPC-AWS-PRINCIPALID",
        "Value": "AROAJQBMNCU5PLFIO7CMQ:A575564"
    },
    {
        "Key": "MPC-SN-OWNER",
        "Value": "Atos Requested for PHHT"
    },
    {
        "Key": "Name",
        "Value": "EC2USE1W0072"
    },
    {
        "Key": "MPC-SN-BUSINESSCLASS",
        "Value": "STD"
    },
    {
        "Key": "CloudID",
        "Value": "AT17-0199"
    },
    {
        "Key": "MPC-AWS-CREATIONDATE",
        "Value": "2018-04-24T12:14:21Z"
    },
    {
        "Key": "MPC-SN-MANAGED",
        "Value": "OP-SYS"
    },
    {
        "Key": "Tag Set",
        "Value": "SNID0010512"
    },
    {
        "Key": "MPC-AWS-OWNER",
        "Value": "A575564"
    },
    {
        "Key": "MPC-SN-BACKUP",
        "Value": "CPM"
    },
    {
        "Key": "BusinessClass",
        "Value": "STD"
    },
    {
        "Key": "Project",
        "Value": "undefined"
    },
    {
        "Key": "MPC-SN-BUSINESSPURPOSE",
        "Value": "US-335 Aurora data center closing Quinn, Kevin <kevin.quinn@philips.com> is the owner of the server"
    },
    {
        "Key": "cpm backup",
        "Value": "Phhtgenra2prBckWinGenDRUSE1#only-snaps"
    },
    {
        "Key": "MPC-SN-SNOW",
        "Value": "RITM000294711"
    }
]